AULA4/simulation/qsim/toplevel.msim.vcd
$comment
	File created using the following command:
		vcd file toplevel.msim.vcd -direction
$end
$date
	Fri Sep 15 22:08:02 2023
$end
$version
	ModelSim Version 2020.1
$end
$timescale
	1ps
$end

$scope module toplevel_vhd_vec_tst $end
$var wire 1 ! CLOCK_50 $end
$var wire 1 " EntradaB_ULA [7] $end
$var wire 1 # EntradaB_ULA [6] $end
$var wire 1 $ EntradaB_ULA [5] $end
$var wire 1 % EntradaB_ULA [4] $end
$var wire 1 & EntradaB_ULA [3] $end
$var wire 1 ' EntradaB_ULA [2] $end
$var wire 1 ( EntradaB_ULA [1] $end
$var wire 1 ) EntradaB_ULA [0] $end
$var wire 1 * KEY [3] $end
$var wire 1 + KEY [2] $end
$var wire 1 , KEY [1] $end
$var wire 1 - KEY [0] $end
$var wire 1 . LEDR [9] $end
$var wire 1 / LEDR [8] $end
$var wire 1 0 LEDR [7] $end
$var wire 1 1 LEDR [6] $end
$var wire 1 2 LEDR [5] $end
$var wire 1 3 LEDR [4] $end
$var wire 1 4 LEDR [3] $end
$var wire 1 5 LEDR [2] $end
$var wire 1 6 LEDR [1] $end
$var wire 1 7 LEDR [0] $end
$var wire 1 8 Palavra_Controle [5] $end
$var wire 1 9 Palavra_Controle [4] $end
$var wire 1 : Palavra_Controle [3] $end
$var wire 1 ; Palavra_Controle [2] $end
$var wire 1 < Palavra_Controle [1] $end
$var wire 1 = Palavra_Controle [0] $end
$var wire 1 > PC_OUT [8] $end
$var wire 1 ? PC_OUT [7] $end
$var wire 1 @ PC_OUT [6] $end
$var wire 1 A PC_OUT [5] $end
$var wire 1 B PC_OUT [4] $end
$var wire 1 C PC_OUT [3] $end
$var wire 1 D PC_OUT [2] $end
$var wire 1 E PC_OUT [1] $end
$var wire 1 F PC_OUT [0] $end
$var wire 1 G SW [9] $end
$var wire 1 H SW [8] $end
$var wire 1 I SW [7] $end
$var wire 1 J SW [6] $end
$var wire 1 K SW [5] $end
$var wire 1 L SW [4] $end
$var wire 1 M SW [3] $end
$var wire 1 N SW [2] $end
$var wire 1 O SW [1] $end
$var wire 1 P SW [0] $end

$scope module i1 $end
$var wire 1 Q gnd $end
$var wire 1 R vcc $end
$var wire 1 S unknown $end
$var wire 1 T devoe $end
$var wire 1 U devclrn $end
$var wire 1 V devpor $end
$var wire 1 W ww_devoe $end
$var wire 1 X ww_devclrn $end
$var wire 1 Y ww_devpor $end
$var wire 1 Z ww_CLOCK_50 $end
$var wire 1 [ ww_KEY [3] $end
$var wire 1 \ ww_KEY [2] $end
$var wire 1 ] ww_KEY [1] $end
$var wire 1 ^ ww_KEY [0] $end
$var wire 1 _ ww_SW [9] $end
$var wire 1 ` ww_SW [8] $end
$var wire 1 a ww_SW [7] $end
$var wire 1 b ww_SW [6] $end
$var wire 1 c ww_SW [5] $end
$var wire 1 d ww_SW [4] $end
$var wire 1 e ww_SW [3] $end
$var wire 1 f ww_SW [2] $end
$var wire 1 g ww_SW [1] $end
$var wire 1 h ww_SW [0] $end
$var wire 1 i ww_PC_OUT [8] $end
$var wire 1 j ww_PC_OUT [7] $end
$var wire 1 k ww_PC_OUT [6] $end
$var wire 1 l ww_PC_OUT [5] $end
$var wire 1 m ww_PC_OUT [4] $end
$var wire 1 n ww_PC_OUT [3] $end
$var wire 1 o ww_PC_OUT [2] $end
$var wire 1 p ww_PC_OUT [1] $end
$var wire 1 q ww_PC_OUT [0] $end
$var wire 1 r ww_LEDR [9] $end
$var wire 1 s ww_LEDR [8] $end
$var wire 1 t ww_LEDR [7] $end
$var wire 1 u ww_LEDR [6] $end
$var wire 1 v ww_LEDR [5] $end
$var wire 1 w ww_LEDR [4] $end
$var wire 1 x ww_LEDR [3] $end
$var wire 1 y ww_LEDR [2] $end
$var wire 1 z ww_LEDR [1] $end
$var wire 1 { ww_LEDR [0] $end
$var wire 1 | ww_Palavra_Controle [5] $end
$var wire 1 } ww_Palavra_Controle [4] $end
$var wire 1 ~ ww_Palavra_Controle [3] $end
$var wire 1 !! ww_Palavra_Controle [2] $end
$var wire 1 "! ww_Palavra_Controle [1] $end
$var wire 1 #! ww_Palavra_Controle [0] $end
$var wire 1 $! ww_EntradaB_ULA [7] $end
$var wire 1 %! ww_EntradaB_ULA [6] $end
$var wire 1 &! ww_EntradaB_ULA [5] $end
$var wire 1 '! ww_EntradaB_ULA [4] $end
$var wire 1 (! ww_EntradaB_ULA [3] $end
$var wire 1 )! ww_EntradaB_ULA [2] $end
$var wire 1 *! ww_EntradaB_ULA [1] $end
$var wire 1 +! ww_EntradaB_ULA [0] $end
$var wire 1 ,! \CLOCK_50~input_o\ $end
$var wire 1 -! \KEY[1]~input_o\ $end
$var wire 1 .! \KEY[2]~input_o\ $end
$var wire 1 /! \KEY[3]~input_o\ $end
$var wire 1 0! \SW[0]~input_o\ $end
$var wire 1 1! \SW[1]~input_o\ $end
$var wire 1 2! \SW[2]~input_o\ $end
$var wire 1 3! \SW[3]~input_o\ $end
$var wire 1 4! \SW[4]~input_o\ $end
$var wire 1 5! \SW[5]~input_o\ $end
$var wire 1 6! \SW[6]~input_o\ $end
$var wire 1 7! \SW[7]~input_o\ $end
$var wire 1 8! \SW[8]~input_o\ $end
$var wire 1 9! \SW[9]~input_o\ $end
$var wire 1 :! \~QUARTUS_CREATED_GND~I_combout\ $end
$var wire 1 ;! \KEY[0]~input_o\ $end
$var wire 1 <! \KEY[0]~inputCLKENA0_outclk\ $end
$var wire 1 =! \PC|DOUT[0]~0_combout\ $end
$var wire 1 >! \PC|DOUT[0]~DUPLICATE_q\ $end
$var wire 1 ?! \incrementaPC|Add0~1_sumout\ $end
$var wire 1 @! \PC|DOUT[1]~DUPLICATE_q\ $end
$var wire 1 A! \incrementaPC|Add0~2\ $end
$var wire 1 B! \incrementaPC|Add0~5_sumout\ $end
$var wire 1 C! \incrementaPC|Add0~6\ $end
$var wire 1 D! \incrementaPC|Add0~9_sumout\ $end
$var wire 1 E! \incrementaPC|Add0~10\ $end
$var wire 1 F! \incrementaPC|Add0~13_sumout\ $end
$var wire 1 G! \incrementaPC|Add0~14\ $end
$var wire 1 H! \incrementaPC|Add0~17_sumout\ $end
$var wire 1 I! \incrementaPC|Add0~18\ $end
$var wire 1 J! \incrementaPC|Add0~21_sumout\ $end
$var wire 1 K! \PC|DOUT[6]~DUPLICATE_q\ $end
$var wire 1 L! \incrementaPC|Add0~22\ $end
$var wire 1 M! \incrementaPC|Add0~25_sumout\ $end
$var wire 1 N! \incrementaPC|Add0~26\ $end
$var wire 1 O! \incrementaPC|Add0~29_sumout\ $end
$var wire 1 P! \ROM1|memROM~0_combout\ $end
$var wire 1 Q! \ROM1|memROM~5_combout\ $end
$var wire 1 R! \ROM1|memROM~1_combout\ $end
$var wire 1 S! \ROM1|memROM~4_combout\ $end
$var wire 1 T! \DEC1|Equal6~2_combout\ $end
$var wire 1 U! \ROM1|memROM~3_combout\ $end
$var wire 1 V! \DEC1|Equal6~3_combout\ $end
$var wire 1 W! \ROM1|memROM~6_combout\ $end
$var wire 1 X! \ROM1|memROM~2_combout\ $end
$var wire 1 Y! \RAM1|ram~85_combout\ $end
$var wire 1 Z! \RAM1|ram~25_q\ $end
$var wire 1 [! \RAM1|ram~84_combout\ $end
$var wire 1 \! \RAM1|ram~17_q\ $end
$var wire 1 ]! \DEC1|Equal6~1_combout\ $end
$var wire 1 ^! \MUX1|saida_MUX[0]~0_combout\ $end
$var wire 1 _! \ULA1|Add0~34_cout\ $end
$var wire 1 `! \ULA1|Add0~1_sumout\ $end
$var wire 1 a! \DEC1|saida~0_combout\ $end
$var wire 1 b! \RAM1|ram~26_q\ $end
$var wire 1 c! \RAM1|ram~18_q\ $end
$var wire 1 d! \MUX1|saida_MUX[1]~1_combout\ $end
$var wire 1 e! \ULA1|Add0~2\ $end
$var wire 1 f! \ULA1|Add0~5_sumout\ $end
$var wire 1 g! \RAM1|ram~27_q\ $end
$var wire 1 h! \REGA|DOUT[2]~DUPLICATE_q\ $end
$var wire 1 i! \RAM1|ram~19_q\ $end
$var wire 1 j! \MUX1|saida_MUX[2]~2_combout\ $end
$var wire 1 k! \ULA1|Add0~6\ $end
$var wire 1 l! \ULA1|Add0~9_sumout\ $end
$var wire 1 m! \DEC1|Equal6~0_combout\ $end
$var wire 1 n! \RAM1|ram~20_q\ $end
$var wire 1 o! \RAM1|ram~28_q\ $end
$var wire 1 p! \RAM1|ram~86_combout\ $end
$var wire 1 q! \ULA1|Add0~10\ $end
$var wire 1 r! \ULA1|Add0~13_sumout\ $end
$var wire 1 s! \MUX1|saida_MUX[3]~3_combout\ $end
$var wire 1 t! \RAM1|ram~21_q\ $end
$var wire 1 u! \RAM1|ram~29_q\ $end
$var wire 1 v! \RAM1|ram~87_combout\ $end
$var wire 1 w! \ULA1|Add0~14\ $end
$var wire 1 x! \ULA1|Add0~17_sumout\ $end
$var wire 1 y! \MUX1|saida_MUX[4]~4_combout\ $end
$var wire 1 z! \RAM1|ram~22_q\ $end
$var wire 1 {! \RAM1|ram~30_q\ $end
$var wire 1 |! \RAM1|ram~81_combout\ $end
$var wire 1 }! \MUX1|saida_MUX[5]~5_combout\ $end
$var wire 1 ~! \RAM1|ram~88_combout\ $end
$var wire 1 !" \ULA1|Add0~18\ $end
$var wire 1 "" \ULA1|Add0~21_sumout\ $end
$var wire 1 #" \REGA|DOUT[5]~DUPLICATE_q\ $end
$var wire 1 $" \RAM1|ram~31_q\ $end
$var wire 1 %" \RAM1|ram~23_q\ $end
$var wire 1 &" \RAM1|ram~82_combout\ $end
$var wire 1 '" \MUX1|saida_MUX[6]~6_combout\ $end
$var wire 1 (" \RAM1|ram~89_combout\ $end
$var wire 1 )" \ULA1|Add0~22\ $end
$var wire 1 *" \ULA1|Add0~25_sumout\ $end
$var wire 1 +" \REGA|DOUT[6]~DUPLICATE_q\ $end
$var wire 1 ," \RAM1|ram~32_q\ $end
$var wire 1 -" \RAM1|ram~24_q\ $end
$var wire 1 ." \RAM1|ram~83_combout\ $end
$var wire 1 /" \RAM1|ram~90_combout\ $end
$var wire 1 0" \ULA1|Add0~26\ $end
$var wire 1 1" \ULA1|Add0~29_sumout\ $end
$var wire 1 2" \MUX1|saida_MUX[7]~7_combout\ $end
$var wire 1 3" \REGA|DOUT\ [7] $end
$var wire 1 4" \REGA|DOUT\ [6] $end
$var wire 1 5" \REGA|DOUT\ [5] $end
$var wire 1 6" \REGA|DOUT\ [4] $end
$var wire 1 7" \REGA|DOUT\ [3] $end
$var wire 1 8" \REGA|DOUT\ [2] $end
$var wire 1 9" \REGA|DOUT\ [1] $end
$var wire 1 :" \REGA|DOUT\ [0] $end
$var wire 1 ;" \PC|DOUT\ [8] $end
$var wire 1 <" \PC|DOUT\ [7] $end
$var wire 1 =" \PC|DOUT\ [6] $end
$var wire 1 >" \PC|DOUT\ [5] $end
$var wire 1 ?" \PC|DOUT\ [4] $end
$var wire 1 @" \PC|DOUT\ [3] $end
$var wire 1 A" \PC|DOUT\ [2] $end
$var wire 1 B" \PC|DOUT\ [1] $end
$var wire 1 C" \PC|DOUT\ [0] $end
$var wire 1 D" \REGA|ALT_INV_DOUT\ [7] $end
$var wire 1 E" \REGA|ALT_INV_DOUT\ [6] $end
$var wire 1 F" \REGA|ALT_INV_DOUT\ [5] $end
$var wire 1 G" \REGA|ALT_INV_DOUT\ [4] $end
$var wire 1 H" \REGA|ALT_INV_DOUT\ [3] $end
$var wire 1 I" \REGA|ALT_INV_DOUT\ [2] $end
$var wire 1 J" \REGA|ALT_INV_DOUT\ [1] $end
$var wire 1 K" \REGA|ALT_INV_DOUT\ [0] $end
$var wire 1 L" \PC|ALT_INV_DOUT[6]~DUPLICATE_q\ $end
$var wire 1 M" \PC|ALT_INV_DOUT[1]~DUPLICATE_q\ $end
$var wire 1 N" \PC|ALT_INV_DOUT[0]~DUPLICATE_q\ $end
$var wire 1 O" \REGA|ALT_INV_DOUT[2]~DUPLICATE_q\ $end
$var wire 1 P" \DEC1|ALT_INV_Equal6~3_combout\ $end
$var wire 1 Q" \DEC1|ALT_INV_Equal6~2_combout\ $end
$var wire 1 R" \DEC1|ALT_INV_Equal6~1_combout\ $end
$var wire 1 S" \ROM1|ALT_INV_memROM~6_combout\ $end
$var wire 1 T" \RAM1|ALT_INV_ram~90_combout\ $end
$var wire 1 U" \RAM1|ALT_INV_ram~89_combout\ $end
$var wire 1 V" \RAM1|ALT_INV_ram~88_combout\ $end
$var wire 1 W" \RAM1|ALT_INV_ram~87_combout\ $end
$var wire 1 X" \RAM1|ALT_INV_ram~86_combout\ $end
$var wire 1 Y" \DEC1|ALT_INV_Equal6~0_combout\ $end
$var wire 1 Z" \ROM1|ALT_INV_memROM~5_combout\ $end
$var wire 1 [" \ROM1|ALT_INV_memROM~4_combout\ $end
$var wire 1 \" \RAM1|ALT_INV_ram~83_combout\ $end
$var wire 1 ]" \RAM1|ALT_INV_ram~32_q\ $end
$var wire 1 ^" \RAM1|ALT_INV_ram~24_q\ $end
$var wire 1 _" \RAM1|ALT_INV_ram~82_combout\ $end
$var wire 1 `" \RAM1|ALT_INV_ram~31_q\ $end
$var wire 1 a" \RAM1|ALT_INV_ram~23_q\ $end
$var wire 1 b" \RAM1|ALT_INV_ram~81_combout\ $end
$var wire 1 c" \RAM1|ALT_INV_ram~30_q\ $end
$var wire 1 d" \RAM1|ALT_INV_ram~22_q\ $end
$var wire 1 e" \RAM1|ALT_INV_ram~29_q\ $end
$var wire 1 f" \RAM1|ALT_INV_ram~21_q\ $end
$var wire 1 g" \RAM1|ALT_INV_ram~28_q\ $end
$var wire 1 h" \RAM1|ALT_INV_ram~20_q\ $end
$var wire 1 i" \MUX1|ALT_INV_saida_MUX[2]~2_combout\ $end
$var wire 1 j" \RAM1|ALT_INV_ram~27_q\ $end
$var wire 1 k" \RAM1|ALT_INV_ram~19_q\ $end
$var wire 1 l" \MUX1|ALT_INV_saida_MUX[1]~1_combout\ $end
$var wire 1 m" \RAM1|ALT_INV_ram~26_q\ $end
$var wire 1 n" \RAM1|ALT_INV_ram~18_q\ $end
$var wire 1 o" \MUX1|ALT_INV_saida_MUX[0]~0_combout\ $end
$var wire 1 p" \RAM1|ALT_INV_ram~25_q\ $end
$var wire 1 q" \RAM1|ALT_INV_ram~17_q\ $end
$var wire 1 r" \ROM1|ALT_INV_memROM~3_combout\ $end
$var wire 1 s" \ROM1|ALT_INV_memROM~2_combout\ $end
$var wire 1 t" \ROM1|ALT_INV_memROM~1_combout\ $end
$var wire 1 u" \ROM1|ALT_INV_memROM~0_combout\ $end
$var wire 1 v" \PC|ALT_INV_DOUT\ [8] $end
$var wire 1 w" \PC|ALT_INV_DOUT\ [7] $end
$var wire 1 x" \PC|ALT_INV_DOUT\ [6] $end
$var wire 1 y" \PC|ALT_INV_DOUT\ [5] $end
$var wire 1 z" \PC|ALT_INV_DOUT\ [4] $end
$var wire 1 {" \PC|ALT_INV_DOUT\ [3] $end
$var wire 1 |" \PC|ALT_INV_DOUT\ [2] $end
$var wire 1 }" \PC|ALT_INV_DOUT\ [1] $end
$var wire 1 ~" \PC|ALT_INV_DOUT\ [0] $end
$upscope $end
$upscope $end
$enddefinitions $end
#0
$dumpvars
x!
0Q
1R
xS
1T
1U
1V
1W
1X
1Y
xZ
x,!
x-!
x.!
x/!
x0!
x1!
x2!
x3!
x4!
x5!
x6!
x7!
x8!
x9!
x:!
1;!
1<!
1=!
0>!
0?!
0@!
0A!
0B!
0C!
0D!
0E!
0F!
0G!
0H!
0I!
0J!
0K!
0L!
0M!
0N!
0O!
1P!
0Q!
1R!
1S!
0T!
1U!
0V!
0W!
0X!
0Y!
0Z!
0[!
0\!
1]!
0^!
1_!
0`!
1a!
0b!
0c!
0d!
1e!
0f!
0g!
0h!
0i!
1j!
1k!
1l!
0m!
0n!
0o!
0p!
0q!
1r!
0s!
0t!
0u!
0v!
0w!
1x!
0y!
0z!
0{!
0|!
0}!
0~!
0!"
1""
0#"
0$"
0%"
0&"
0'"
0("
0)"
1*"
0+"
0,"
0-"
0."
0/"
00"
11"
02"
1L"
1M"
1N"
1O"
1P"
1Q"
0R"
1S"
1T"
1U"
1V"
1W"
1X"
1Y"
1Z"
0["
1\"
1]"
1^"
1_"
1`"
1a"
1b"
1c"
1d"
1e"
1f"
1g"
1h"
0i"
1j"
1k"
1l"
1m"
1n"
1o"
1p"
1q"
0r"
1s"
0t"
0u"
x*
x+
x,
1-
x[
x\
x]
1^
x_
x`
xa
xb
xc
xd
xe
xf
xg
xh
0i
0j
0k
0l
0m
0n
0o
0p
0q
1r
0s
0t
0u
0v
0w
0x
0y
0z
0{
1|
1}
1~
0!!
0"!
0#!
0$!
0%!
0&!
0'!
0(!
1)!
0*!
0+!
03"
04"
05"
06"
07"
08"
09"
0:"
0;"
0<"
0="
0>"
0?"
0@"
0A"
0B"
0C"
1D"
1E"
1F"
1G"
1H"
xI"
1J"
1K"
1v"
1w"
1x"
1y"
1z"
1{"
1|"
1}"
1~"
0"
0#
0$
0%
0&
1'
0(
0)
1.
0/
00
01
02
03
04
05
06
07
18
19
1:
0;
0<
0=
0>
0?
0@
0A
0B
0C
0D
0E
0F
xG
xH
xI
xJ
xK
xL
xM
xN
xO
xP
$end
#10000
0-
0^
0;!
0<!
#20000
1-
1^
1;!
1<!
1>!
1C"
1h!
18"
0O"
0~"
0N"
0=!
1?!
0U!
1V!
0]!
0a!
1W!
0l!
1q!
0S"
1R"
0P"
1r"
1y
1q
0r!
1w!
1[!
0j!
1X!
15
1F
0x!
1!"
0s"
1i"
0}
0r
0~
0|
1#!
1l!
1Y!
0[!
0""
1)"
1=
0:
09
08
0.
0)!
0*"
10"
0'
01"
#30000
0-
0^
0;!
0<!
#40000
1-
1^
1;!
1<!
0>!
1B"
1@!
0C"
1g!
0j"
1~"
0M"
0}"
1N"
1=!
1U!
0V!
1]!
1a!
1j!
0i"
0R"
1P"
0r"
1p
0q
0Y!
1^!
1d!
0j!
0l!
0F
1E
1i"
0l"
0o"
1)!
1}
1r
1~
1|
0#!
1`!
0e!
1f!
0k!
1l!
1'
0=
1:
19
18
1.
0)!
1*!
1+!
0l!
0f!
1)
1(
0'
#50000
0-
0^
0;!
0<!
#60000
1-
1^
1;!
1<!
1>!
1C"
1:"
19"
0h!
08"
1O"
0J"
0K"
0~"
0N"
0=!
0?!
1A!
0U!
1V!
0]!
0a!
0W!
0`!
1e!
1f!
1l!
0q!
1S"
1R"
0P"
1r"
0y
1z
1{
1q
1r!
0w!
0f!
1k!
1B!
1Y!
0^!
0d!
1j!
0X!
17
16
05
1F
0l!
1q!
1x!
0!"
1s"
0i"
1l"
1o"
0}
0r
0~
0|
1#!
1`!
1f!
1l!
0q!
0Y!
1[!
0j!
1""
0)"
0r!
1w!
1=
0:
09
08
0.
1i"
1)!
0*!
0+!
0x!
1!"
1*"
00"
1r!
0w!
0l!
1q!
0)
0(
1'
1x!
0!"
11"
0""
1)"
0)!
0r!
1w!
0*"
10"
1""
0)"
0'
0x!
1!"
1*"
00"
01"
0""
1)"
11"
0*"
10"
01"
#70000
0-
0^
0;!
0<!
#80000
1-
1^
1;!
1<!
0>!
0B"
0@!
1A"
0C"
1\!
1c!
0n"
0q"
1~"
0|"
1M"
1}"
1N"
1=!
0A!
0B!
1C!
1Q!
0R!
1T!
0V!
1a!
1^!
1d!
0l"
0o"
1P"
0Q"
1t"
0Z"
1o
0p
0q
1D!
1B!
0C!
0S!
0_!
1l!
0q!
1r!
0w!
1x!
0!"
1""
0)"
1*"
00"
11"
0[!
0F
0E
1D
0D!
1["
1*!
1+!
1}
0#!
1s
1!!
01"
0*"
0""
0x!
0r!
0`!
1)
1(
0=
1;
19
1/
#90000
0-
0^
0;!
0<!
#100000
1-
1^
1;!
1<!
1>!
1C"
0:"
1h!
18"
0O"
1K"
0~"
0N"
0=!
1?!
1`!
0e!
0l!
1q!
1y
0{
1q
1r!
0f!
07
15
1F
#110000
0-
0^
0;!
0<!
#120000
1-
1^
1;!
1<!
0>!
1B"
1@!
0C"
1:"
09"
0h!
08"
17"
0H"
1O"
1J"
0K"
1~"
0M"
0}"
1N"
1=!
0Q!
1R!
0T!
1]!
1m!
0`!
1e!
1f!
0k!
1l!
0q!
0r!
1w!
0Y"
0R"
1Q"
0t"
1Z"
1x
0y
0z
1{
1p
0q
1x!
1r!
0w!
0l!
0f!
1k!
1S!
0m!
1_!
1`!
0e!
1f!
0k!
1l!
0^!
0d!
0r!
1w!
0x!
1!"
1""
1*"
11"
17
06
05
14
0F
1E
0l!
1q!
1x!
0!"
1l"
1o"
1Y"
0["
1r
1~
1|
0s
0!!
0""
1)"
0x!
1!"
1l!
0q!
0f!
0`!
1e!
1`!
1f!
1""
0)"
1r!
0/
1.
0;
1:
18
0f!
1k!
0r!
0""
1)"
0*"
10"
0*!
0+!
1*"
00"
01"
0*"
10"
0l!
1q!
0)
0(
11"
1r!
01"
#130000
0-
0^
0;!
0<!
#140000
1-
1^
1;!
1<!
1>!
1C"
0:"
07"
1H"
1K"
0~"
0N"
0=!
0?!
1A!
0R!
0]!
0a!
0`!
0r!
1R"
1t"
0x
0{
1q
0B!
1C!
0S!
1m!
1^!
1d!
07
04
1F
1D!
0l"
0o"
0Y"
1["
0}
0r
0~
0|
1`!
0e!
1f!
0k!
0:
09
08
0.
1*!
1+!
1l!
0q!
0f!
1)
1(
1r!
0w!
1x!
0!"
1""
0)"
1*"
00"
11"
#150000
0-
0^
0;!
0<!
#160000
1-
1^
1;!
1<!
0>!
0B"
0@!
0A"
1@"
0C"
1~"
0{"
1|"
1M"
1}"
1N"
1=!
0A!
1B!
0C!
0D!
1E!
1n
0o
0p
0q
1F!
1D!
0E!
0B!
0F
0E
0D
1C
0F!
#170000
0-
0^
0;!
0<!
#180000
1-
1^
1;!
1<!
1>!
1C"
0~"
0N"
0=!
1?!
1q
1F
#190000
0-
0^
0;!
0<!
#200000
1-
1^
1;!
1<!
0>!
1B"
1@!
0C"
1~"
0M"
0}"
1N"
1=!
1p
0q
0F
1E
#210000
0-
0^
0;!
0<!
#220000
1-
1^
1;!
1<!
1>!
1C"
0~"
0N"
0=!
0?!
1A!
1q
1B!
1F
#230000
0-
0^
0;!
0<!
#240000
1-
1^
1;!
1<!
0>!
0B"
0@!
1A"
0C"
1~"
0|"
1M"
1}"
1N"
1=!
0A!
0B!
1C!
1o
0p
0q
0D!
1E!
1B!
0C!
0F
0E
1D
1D!
0E!
1F!
0F!
#250000
0-
0^
0;!
0<!
#260000
1-
1^
1;!
1<!
1>!
1C"
0~"
0N"
0=!
1?!
1q
1F
#270000
0-
0^
0;!
0<!
#280000
1-
1^
1;!
1<!
0>!
1B"
1@!
0C"
1~"
0M"
0}"
1N"
1=!
1p
0q
0F
1E
#290000
0-
0^
0;!
0<!
#300000
1-
1^
1;!
1<!
1>!
1C"
0~"
0N"
0=!
0?!
1A!
1q
0B!
1C!
1F
0D!
1E!
1F!
#310000
0-
0^
0;!
0<!
#320000
1-
1^
1;!
1<!
0>!
0B"
0@!
0A"
0@"
1?"
0C"
1~"
0z"
1{"
1|"
1M"
1}"
1N"
1=!
0A!
1B!
0C!
1D!
0E!
1R!
1U!
1]!
1a!
0F!
1G!
0P!
1u"
0R"
0r"
0t"
1m
0n
0o
0p
0q
1H!
1F!
0G!
0D!
0B!
0^!
0d!
1j!
0U!
0]!
0a!
0F
0E
0D
0C
1B
0H!
1R"
1r"
0i"
1l"
1o"
1}
1r
1~
1|
0`!
1e!
1f!
0l!
1^!
1d!
0j!
1:
19
18
1.
1i"
0l"
0o"
0}
0r
0~
0|
1)!
0*!
0+!
0f!
1k!
1`!
0e!
1f!
0k!
1l!
0:
09
08
0.
0)
0(
1'
0l!
1q!
0)!
1*!
1+!
1l!
0q!
0f!
0r!
1w!
1)
1(
0'
1r!
0w!
0x!
1!"
1x!
0!"
0""
1)"
1""
0)"
0*"
10"
1*"
00"
01"
11"
#330000
0-
0^
0;!
0<!
#340000
1-
1^
1;!
1<!
1>!
1C"
0~"
0N"
0=!
1?!
1W!
0S"
1q
1F
#350000
0-
0^
0;!
0<!
#360000
1-
1^
1;!
1<!
0>!
1B"
1@!
0C"
1~"
0M"
0}"
1N"
1=!
1p
0q
0F
1E
#370000
0-
0^
0;!
0<!
#380000
1-
1^
1;!
1<!
1>!
1C"
0~"
0N"
0=!
0?!
1A!
0W!
1S"
1q
1B!
1F
#390000
0-
0^
0;!
0<!
#400000
1-
1^
1;!
1<!
0>!
0B"
0@!
1A"
0C"
1~"
0|"
1M"
1}"
1N"
1=!
0A!
0B!
1C!
0R!
1t"
1o
0p
0q
1D!
1B!
0C!
0F
0E
1D
0D!
#410000
0-
0^
0;!
0<!
#420000
1-
1^
1;!
1<!
1>!
1C"
0~"
0N"
0=!
1?!
1q
1F
#430000
0-
0^
0;!
0<!
#440000
1-
1^
1;!
1<!
0>!
1B"
1@!
0C"
1~"
0M"
0}"
1N"
1=!
1R!
0t"
1p
0q
0F
1E
#450000
0-
0^
0;!
0<!
#460000
1-
1^
1;!
1<!
1>!
1C"
0~"
0N"
0=!
0?!
1A!
0R!
1t"
1q
0B!
1C!
1F
1D!
#470000
0-
0^
0;!
0<!
#480000
1-
1^
1;!
1<!
0>!
0B"
0@!
0A"
1@"
0C"
1~"
0{"
1|"
1M"
1}"
1N"
1=!
0A!
1B!
0C!
0D!
1E!
1n
0o
0p
0q
0F!
1G!
1D!
0E!
0B!
0F
0E
0D
1C
1F!
0G!
1H!
0H!
#490000
0-
0^
0;!
0<!
#500000
1-
1^
1;!
1<!
1>!
1C"
0~"
0N"
0=!
1?!
1q
1F
#510000
0-
0^
0;!
0<!
#520000
1-
1^
1;!
1<!
0>!
1B"
1@!
0C"
1~"
0M"
0}"
1N"
1=!
1p
0q
0F
1E
#530000
0-
0^
0;!
0<!
#540000
1-
1^
1;!
1<!
1>!
1C"
0~"
0N"
0=!
0?!
1A!
1q
1B!
1F
#550000
0-
0^
0;!
0<!
#560000
1-
1^
1;!
1<!
0>!
0B"
0@!
1A"
0C"
1~"
0|"
1M"
1}"
1N"
1=!
0A!
0B!
1C!
1o
0p
0q
0D!
1E!
1B!
0C!
0F
0E
1D
1D!
0E!
0F!
1G!
1H!
1F!
0G!
0H!
#570000
0-
0^
0;!
0<!
#580000
1-
1^
1;!
1<!
1>!
1C"
0~"
0N"
0=!
1?!
1q
1F
#590000
0-
0^
0;!
0<!
#600000
1-
1^
1;!
1<!
0>!
1B"
1@!
0C"
1~"
0M"
0}"
1N"
1=!
1p
0q
0F
1E
#610000
0-
0^
0;!
0<!
#620000
1-
1^
1;!
1<!
1>!
1C"
0~"
0N"
0=!
0?!
1A!
1q
0B!
1C!
1F
0D!
1E!
0F!
1G!
1H!
#630000
0-
0^
0;!
0<!
#640000
1-
1^
1;!
1<!
0>!
0B"
0@!
0A"
0@"
0?"
1>"
0C"
1~"
0y"
1z"
1{"
1|"
1M"
1}"
1N"
1=!
0A!
1B!
0C!
1D!
0E!
1R!
1F!
0G!
0H!
1I!
0t"
1l
0m
0n
0o
0p
0q
1J!
1H!
0I!
0F!
0D!
0B!
0F
0E
0D
0C
0B
1A
0J!
#650000
0-
0^
0;!
0<!
#660000
1-
1^
1;!
1<!
1>!
1C"
0~"
0N"
0=!
1?!
1W!
0S"
1q
1F
#670000
0-
0^
0;!
0<!
#680000
1-
1^
1;!
1<!
0>!
1B"
1@!
0C"
1~"
0M"
0}"
1N"
1=!
1p
0q
0F
1E
#690000
0-
0^
0;!
0<!
#700000
1-
1^
1;!
1<!
1>!
1C"
0~"
0N"
0=!
0?!
1A!
0W!
1S"
1q
1B!
1F
#710000
0-
0^
0;!
0<!
#720000
1-
1^
1;!
1<!
0>!
0B"
0@!
1A"
0C"
1~"
0|"
1M"
1}"
1N"
1=!
0A!
0B!
1C!
0R!
1t"
1o
0p
0q
1D!
1B!
0C!
0F
0E
1D
0D!
#730000
0-
0^
0;!
0<!
#740000
1-
1^
1;!
1<!
1>!
1C"
0~"
0N"
0=!
1?!
1q
1F
#750000
0-
0^
0;!
0<!
#760000
1-
1^
1;!
1<!
0>!
1B"
1@!
0C"
1~"
0M"
0}"
1N"
1=!
1R!
0t"
1p
0q
0F
1E
#770000
0-
0^
0;!
0<!
#780000
1-
1^
1;!
1<!
1>!
1C"
0~"
0N"
0=!
0?!
1A!
0R!
1t"
1q
0B!
1C!
1F
1D!
#790000
0-
0^
0;!
0<!
#800000
1-
1^
1;!
1<!
0>!
0B"
0@!
0A"
1@"
0C"
1~"
0{"
1|"
1M"
1}"
1N"
1=!
0A!
1B!
0C!
0D!
1E!
1n
0o
0p
0q
1F!
1D!
0E!
0B!
0F
0E
0D
1C
0F!
#810000
0-
0^
0;!
0<!
#820000
1-
1^
1;!
1<!
1>!
1C"
0~"
0N"
0=!
1?!
1q
1F
#830000
0-
0^
0;!
0<!
#840000
1-
1^
1;!
1<!
0>!
1B"
1@!
0C"
1~"
0M"
0}"
1N"
1=!
1p
0q
0F
1E
#850000
0-
0^
0;!
0<!
#860000
1-
1^
1;!
1<!
1>!
1C"
0~"
0N"
0=!
0?!
1A!
1q
1B!
1F
#870000
0-
0^
0;!
0<!
#880000
1-
1^
1;!
1<!
0>!
0B"
0@!
1A"
0C"
1~"
0|"
1M"
1}"
1N"
1=!
0A!
0B!
1C!
1o
0p
0q
0D!
1E!
1B!
0C!
0F
0E
1D
1D!
0E!
1F!
0F!
#890000
0-
0^
0;!
0<!
#900000
1-
1^
1;!
1<!
1>!
1C"
0~"
0N"
0=!
1?!
1q
1F
#910000
0-
0^
0;!
0<!
